individual1.Rmd
…
From this, I would determine that better defense was played against Kansas State. While there are not many players that had a large number of solo tackles in both games, there was a larger clump of players that had between 1-4 solo tackles against KSU, that did not perform well against WVU. Therefore, those small increments of fewer tackles led to more overall solo tackles against Kansas State.

Part two: Tidying (2)

bioClean <- separate(bioClean, "Hometown", c('City', 'State'), sep = ", ")
a <- bioClean %>% group_by(State) %>% summarise(Num_Players = n())
a

## # A tibble: 25 x 2
##    State     Num_Players
##    <chr>           <int>
##  1 Ariz.               3
##  2 Ark.                2
##  3 Australia           2
##  4 Calif.              8
##  5 D.C.                1
##  6 Fla.                8
##  7 Ga.                 2
##  8 Ill.                5
##  9 Iowa               44
## 10 Kan.                3
## #  with 15 more rows
…
