Lab 4 team file
…
#?mutate_at
defense <- defense %>% mutate_at(vars(Tackles_Solo : Pass_PB), funs(as.numeric))
offense <- offense %>% mutate_at(vars(Receiving_REC : Passing_INT), funs(as.numeric))

## Warning in evalq(as.numeric(`Passing_CMP-ATT`), <environment>): NAs
## introduced by coercion

biography <- biography %>% mutate(Weight = as.numeric(Weight))

Bonus: Change the Height column in biography into numeric.

SepHeight <- biography %>% separate(Height, into=c('feet', 'inches'), sep = "-")
SepHeight

## # A tibble: 123 x 8
##    Name      Position   feet  inches Weight Class    Hometown    Highschool
##    <fct>     <chr>      <chr> <chr>   <dbl> <chr>    <chr>       <chr>     
##  1 Akers, L Wide Rece 6     0         192 Redshir Cedar Rapi Washington
##  2 Allen, C Tight End  6     7         240 Redshir Nixa, Mo.   Nixa      
##  3 Alt, Ger Offensive 6     2         290 Redshir Cedar Rapi Washington
##  4 Anderson Tight End  6     4         250 Redshir League Cit Clear Fal
##  5 Assalley Placekick 6     0         191 Redshir Naperville Central   
##  6 Austin,  Linebacker 5     11        205 Redshir Walnut, Ca Bishop Am
##  7 Azunna,  Defensive 6     0         192 Redshir Grand Prai Lake Ridge
##  8 Bailey,  Defensive 6     3         224 Redshir Clarksdale Clarksdale
##  9 Bailey,  Defensive 6     2         251 Junior   Jacksonvil Raines    
## 10 Bailey,  Defensive 6     2         284 Redshir Jacksonvil Raines    
## #  with 113 more rows

SepHeight$feet <- as.numeric(SepHeight$feet)
SepHeight$inches <- as.numeric(SepHeight$inches)
SepHeight <- SepHeight %>% mutate(Centimeter = SepHeight$feet * 30.48 + SepHeight$inches * 2.54)
SepHeight

## # A tibble: 123 x 9
##    Name   Position  feet inches Weight Class Hometown Highschool Centimeter
##    <fct>  <chr>    <dbl>  <dbl>  <dbl> <chr> <chr>    <chr>           <dbl>
##  1 Akers Wide Re     6      0    192 Reds Cedar R Washington       183.
##  2 Allen Tight E     6      7    240 Reds Nixa, M Nixa             201.
##  3 Alt,  Offensi     6      2    290 Reds Cedar R Washington       188.
##  4 Ander Tight E     6      4    250 Reds League  Clear Fal       193.
##  5 Assal Placeki     6      0    191 Reds Napervi Central          183.
##  6 Austi Linebac     5     11    205 Reds Walnut, Bishop Am       180.
##  7 Azunn Defensi     6      0    192 Reds Grand P Lake Ridge       183.
##  8 Baile Defensi     6      3    224 Reds Clarksd Clarksdale       190.
##  9 Baile Defensi     6      2    251 Juni Jackson Raines           188.
## 10 Baile Defensi     6      2    284 Reds Jackson Raines           188.
## #  with 113 more rows
…
Part Two: Tidying (1)

1 & 2.Reformat the defClean data frame into a tidy format using gather. The type of statistic (Tackles_Solo, Tackles_ASST, etc) is added as a new key column named Statistic. Create a histogram for each defensive statistic. Use facet_wrap to draw all histograms in a single plot. What defensive skills are rare?

defClean <- defClean %>% gather(key= Type, value = Statistic, 3:11)
defClean

## # A tibble: 4,014 x 4
##    Name           Opponent       Type         Statistic
##    <fct>          <fct>          <chr>            <dbl>
##  1 Eisworth, Greg Iowa           Tackles_Solo         3
##  2 Eisworth, Greg Oklahoma       Tackles_Solo         6
##  3 Eisworth, Greg Akron          Tackles_Solo         7
##  4 Eisworth, Greg TCU            Tackles_Solo         6
##  5 Eisworth, Greg Oklahoma State Tackles_Solo         3
##  6 Eisworth, Greg West Virginia  Tackles_Solo         5
##  7 Eisworth, Greg Texas Tech     Tackles_Solo         3
##  8 Eisworth, Greg Kansas         Tackles_Solo         7
##  9 Eisworth, Greg Baylor         Tackles_Solo         2
## 10 Eisworth, Greg Texas          Tackles_Solo         9
## #  with 4,004 more rows
…
## # A tibble: 6 x 2
##   Name             state    
##   <fct>            <chr>    
## 1 Akers, Landen    " Iowa"  
## 2 Allen, Chase     " Mo."   
## 3 Alt, Gerry       " Iowa"  
## 4 Anderson, Cole   " Texas" 
## 5 Assalley, Connor " Ill."  
## 6 Austin, Aaron    " Calif."

(NumPlayer <- NumPlayer %>% group_by(state) %>% summarise(num_player = n()))

## # A tibble: 25 x 2
##    state        num_player
##    <chr>             <int>
##  1 " Ariz."              3
##  2 " Ark."               2
##  3 " Australia"          2
##  4 " Calif."             8
##  5 " D.C."               1
##  6 " Fla."               8
##  7 " Ga."                2
##  8 " Ill."               5
##  9 " Iowa"              44
## 10 " Kan."               3
## #  with 15 more rows

Find where do the offensive players come from by joining the offensive data and player biography data appropriately.

newbiography <- biography %>% select(Name, Hometown)
newoffense <- offense %>% select(Name, Opponent, Receiving_REC)
inner_join(newbiography,newoffense)

## Joining, by = "Name"

## Warning: Column `Name` joining factors with different levels, coercing to
## character vector

## # A tibble: 163 x 4
##    Name          Hometown           Opponent       Receiving_REC
##    <chr>         <chr>              <fct>                  <dbl>
##  1 Akers, Landen Cedar Rapids, Iowa Iowa                       1
##  2 Akers, Landen Cedar Rapids, Iowa Oklahoma                   1
##  3 Akers, Landen Cedar Rapids, Iowa Akron                      1
##  4 Akers, Landen Cedar Rapids, Iowa TCU                        1
##  5 Akers, Landen Cedar Rapids, Iowa Oklahoma State             1
##  6 Akers, Landen Cedar Rapids, Iowa West Virginia              1
##  7 Akers, Landen Cedar Rapids, Iowa Texas Tech                 0
##  8 Akers, Landen Cedar Rapids, Iowa Kansas                     3
##  9 Akers, Landen Cedar Rapids, Iowa Baylor                     0
## 10 Akers, Landen Cedar Rapids, Iowa Texas                      0
## #  with 153 more rows
…
